[ {
  "uid" : "c46538e4316ca4da",
  "name" : "test_user_can_open_google_skipped",
  "time" : {
    "start" : 1640336119812,
    "stop" : 1640336119812,
    "duration" : 0
  },
  "status" : "skipped",
  "severity" : "normal"
}, {
  "uid" : "a15e38fff21dbe63",
  "name" : "test_user_can_open_google",
  "time" : {
    "start" : 1640336115656,
    "stop" : 1640336116993,
    "duration" : 1337
  },
  "status" : "passed",
  "severity" : "normal"
}, {
  "uid" : "f1066afed4d0ea6d",
  "name" : "test_user_can_open_google_failed",
  "time" : {
    "start" : 1640336118668,
    "stop" : 1640336119672,
    "duration" : 1004
  },
  "status" : "failed",
  "severity" : "normal"
} ]