{
  "4c6a279982e7076afc4b8cbab371e589" : {
    "statistic" : {
      "failed" : 1,
      "broken" : 0,
      "skipped" : 0,
      "passed" : 0,
      "unknown" : 0,
      "total" : 1
    },
    "items" : [ {
      "uid" : "f1066afed4d0ea6d",
      "status" : "failed",
      "statusDetails" : "AssertionError: assert 'https://www.google.com/?safe=active&ssui=on' != 'https://www.google.com/?safe=active&ssui=on'\n +  where 'https://www.google.com/?safe=active&ssui=on' = <selenium.webdriver.chrome.webdriver.WebDriver (session=\"754a6e64afd20c0e26ec3b4520067e2a\")>.current_url",
      "time" : {
        "start" : 1640336118668,
        "stop" : 1640336119672,
        "duration" : 1004
      }
    } ]
  },
  "4746c1971663e6d263e252a509194910" : {
    "statistic" : {
      "failed" : 0,
      "broken" : 0,
      "skipped" : 1,
      "passed" : 0,
      "unknown" : 0,
      "total" : 1
    },
    "items" : [ {
      "uid" : "c46538e4316ca4da",
      "status" : "skipped",
      "statusDetails" : "Skipped: unconditional skip",
      "time" : {
        "start" : 1640336119812,
        "stop" : 1640336119812,
        "duration" : 0
      }
    } ]
  },
  "a83634c4f72236e67cebfb2eb3b734d2" : {
    "statistic" : {
      "failed" : 0,
      "broken" : 0,
      "skipped" : 0,
      "passed" : 1,
      "unknown" : 0,
      "total" : 1
    },
    "items" : [ {
      "uid" : "a15e38fff21dbe63",
      "status" : "passed",
      "time" : {
        "start" : 1640336115656,
        "stop" : 1640336116993,
        "duration" : 1337
      }
    } ]
  }
}